PULs_PINT
…
formating PULs and SusCD and GHs names

to align them with dummies function (gggenes)

puls_genes_sep

## # A tibble: 104 x 15
##    genome pulid protein_id contig  start    end strand    dist protein_name
##    <chr>  <fct> <chr>      <chr>   <dbl>  <dbl> <chr>    <dbl> <chr>       
##  1 PINT   PUL1  PINT_02791 gnl|H 114649 116781 -            0 PINT_02791  
##  2 PINT   PUL1  PINT_02792 gnl|H 116816 120028 -           35 PINT_02792  
##  3 PINT   PUL1  PINT_02793 gnl|H 120390 122558 -          362 PINT_02793  
##  4 PINT   PUL2  PINT_00866 gnl|H 382236 383972 -       259678 PINT_00866  
##  5 PINT   PUL2  PINT_00867 gnl|H 383995 387093 -           23 PINT_00867  
##  6 PINT   PUL3  PINT_01043 gnl|H  57149  60184 +      -329944 PINT_01043  
##  7 PINT   PUL3  PINT_01044 gnl|H  60201  62003 +           17 PINT_01044  
##  8 PINT   PUL4  PINT_01251 gnl|H 289913 292444 -       227910 PINT_01251  
##  9 PINT   PUL4  PINT_01252 gnl|H 292705 292917 -          261 PINT_01252  
## 10 PINT   PUL4  PINT_01253 gnl|H 292991 294673 +           74 PINT_01253  
## #  with 94 more rows, and 6 more variables: sus <chr>, hmm <chr>,
## #   Cazy_Fam <chr>, sub_fam <chr>, active <lgl>, pul_subs <chr>

puls_genes_sep[!duplicated(puls_genes_sep[,c("pulid","sus")],fromLast=FALSE),]

## # A tibble: 44 x 15
##    genome pulid protein_id contig  start    end strand    dist protein_name
##    <chr>  <fct> <chr>      <chr>   <dbl>  <dbl> <chr>    <dbl> <chr>       
##  1 PINT   PUL1  PINT_02791 gnl|H 114649 116781 -            0 PINT_02791  
##  2 PINT   PUL1  PINT_02792 gnl|H 116816 120028 -           35 PINT_02792  
##  3 PINT   PUL1  PINT_02793 gnl|H 120390 122558 -          362 PINT_02793  
##  4 PINT   PUL2  PINT_00866 gnl|H 382236 383972 -       259678 PINT_00866  
##  5 PINT   PUL2  PINT_00867 gnl|H 383995 387093 -           23 PINT_00867  
##  6 PINT   PUL3  PINT_01043 gnl|H  57149  60184 +      -329944 PINT_01043  
##  7 PINT   PUL3  PINT_01044 gnl|H  60201  62003 +           17 PINT_01044  
##  8 PINT   PUL4  PINT_01251 gnl|H 289913 292444 -       227910 PINT_01251  
##  9 PINT   PUL4  PINT_01252 gnl|H 292705 292917 -          261 PINT_01252  
## 10 PINT   PUL4  PINT_01256 gnl|H 298739 300232 +           37 PINT_01256  
## #  with 34 more rows, and 6 more variables: sus <chr>, hmm <chr>,
## #   Cazy_Fam <chr>, sub_fam <chr>, active <lgl>, pul_subs <chr>
…
