PULs_PROD
…
formating PULs and SusCD and GHs names

to align them with dummies function (gggenes)

puls_genes_sep

## # A tibble: 74 x 15
##    genome pulid protein_id contig start   end strand   dist protein_name sus  
##    <chr>  <fct> <chr>      <chr>  <dbl> <dbl> <chr>   <dbl> <chr>        <chr>
##  1 PROD   PUL1  PROD_01882 gnl|H 76530 79769 +           0 PROD_01882   susC 
##  2 PROD   PUL1  PROD_01883 gnl|H 79831 81435 +          62 PROD_01883   susD 
##  3 PROD   PUL1  PROD_01884 gnl|H 81466 83328 +          31 PROD_01884   <NA> 
##  4 PROD   PUL1  PROD_01885 gnl|H 83497 84318 +         169 PROD_01885   <NA> 
##  5 PROD   PUL1  PROD_01886 gnl|H 84625 87027 +         307 PROD_01886   <NA> 
##  6 PROD   PUL2  PROD_02112 gnl|H 24466 28125 +      -62561 PROD_02112   <NA> 
##  7 PROD   PUL2  PROD_02113 gnl|H 28133 28549 -           8 PROD_02113   <NA> 
##  8 PROD   PUL2  PROD_02114 gnl|H 28912 29127 +         363 PROD_02114   <NA> 
##  9 PROD   PUL2  PROD_02115 gnl|H 29575 33105 +         448 PROD_02115   <NA> 
## 10 PROD   PUL2  PROD_02116 gnl|H 33246 37538 +         141 PROD_02116   <NA> 
## #  with 64 more rows, and 5 more variables: hmm <chr>, Cazy_Fam <chr>,
## #   sub_fam <chr>, active <lgl>, pul_subs <chr>

puls_genes_sep[!duplicated(puls_genes_sep[,c("pulid","sus")],fromLast=FALSE),]

## # A tibble: 25 x 15
##    genome pulid protein_id contig  start    end strand   dist protein_name sus  
##    <chr>  <fct> <chr>      <chr>   <dbl>  <dbl> <chr>   <dbl> <chr>        <chr>
##  1 PROD   PUL1  PROD_01882 gnl|H  76530  79769 +           0 PROD_01882   susC 
##  2 PROD   PUL1  PROD_01883 gnl|H  79831  81435 +          62 PROD_01883   susD 
##  3 PROD   PUL1  PROD_01884 gnl|H  81466  83328 +          31 PROD_01884   <NA> 
##  4 PROD   PUL2  PROD_02112 gnl|H  24466  28125 +      -62561 PROD_02112   <NA> 
##  5 PROD   PUL2  PROD_02118 gnl|H  40250  43618 +          10 PROD_02118   susC 
##  6 PROD   PUL2  PROD_02119 gnl|H  43651  45474 +          33 PROD_02119   susD 
##  7 PROD   PUL3  PROD_02216 gnl|H  62762  66001 +        9920 PROD_02216   susC 
##  8 PROD   PUL3  PROD_02217 gnl|H  66033  67553 +          32 PROD_02217   susD 
##  9 PROD   PUL3  PROD_02218 gnl|H  67578  69527 +          25 PROD_02218   <NA> 
## 10 PROD   PUL4  PROD_00473 gnl|H 129359 132595 +       51738 PROD_00473   susC 
## #  with 15 more rows, and 5 more variables: hmm <chr>, Cazy_Fam <chr>,
## #   sub_fam <chr>, active <lgl>, pul_subs <chr>
…
