PULs_PMUR
…
formating PULs and SusCD and GHs names

to align them with dummies function (gggenes)

puls_genes_sep

## # A tibble: 61 x 15
##    genome pulid protein_id contig  start    end strand  dist protein_name sus  
##    <chr>  <fct> <chr>      <chr>   <dbl>  <dbl> <chr>  <dbl> <chr>        <chr>
##  1 PMUR   PUL1  PMUR_00211 gnl|H 275557 277524 +          0 PMUR_00211   susC 
##  2 PMUR   PUL1  PMUR_00212 gnl|H 277521 281768 +         -3 PMUR_00212   <NA> 
##  3 PMUR   PUL1  PMUR_00213 gnl|H 281768 282454 +          0 PMUR_00213   <NA> 
##  4 PMUR   PUL1  PMUR_00214 gnl|H 282451 283056 +         -3 PMUR_00214   <NA> 
##  5 PMUR   PUL1  PMUR_00215 gnl|H 283053 283391 +         -3 PMUR_00215   <NA> 
##  6 PMUR   PUL1  PMUR_00216 gnl|H 283537 286092 -        146 PMUR_00216   <NA> 
##  7 PMUR   PUL1  PMUR_00217 gnl|H 286180 286380 +         88 PMUR_00217   <NA> 
##  8 PMUR   PUL1  PMUR_00218 gnl|H 286545 288896 +        165 PMUR_00218   <NA> 
##  9 PMUR   PUL1  PMUR_00219 gnl|H 288916 292191 +         20 PMUR_00219   susC 
## 10 PMUR   PUL1  PMUR_00220 gnl|H 292208 293773 +         17 PMUR_00220   susD 
## #  with 51 more rows, and 5 more variables: hmm <chr>, Cazy_Fam <chr>,
## #   sub_fam <chr>, active <lgl>, pul_subs <chr>
…
